module gitlab.com/bishe-projects/user_service

go 1.17

require (
	github.com/bytedance/gopkg v0.0.0-20220531084716-665b4f21126f
	github.com/cloudwego/kitex v0.4.2
	gitlab.com/bishe-projects/common_utils v0.0.0-20221016021342-a9aa524433ce
	gitlab.com/bishe-projects/service_kitex_gen v0.0.0-20221012065047-d3f9414d7c4c
	gorm.io/driver/mysql v1.3.4
	gorm.io/gorm v1.23.6
)

require (
	github.com/apache/thrift v0.17.0 // indirect
	github.com/chenzhuoyu/iasm v0.0.0-20220818063314-28c361dae733 // indirect
	github.com/choleraehyq/pid v0.0.15 // indirect
	github.com/cloudwego/fastpb v0.0.2 // indirect
	github.com/cloudwego/frugal v0.1.3 // indirect
	github.com/cloudwego/netpoll v0.2.6 // indirect
	github.com/cloudwego/thriftgo v0.2.1 // indirect
	github.com/go-sql-driver/mysql v1.6.0 // indirect
	github.com/golang-jwt/jwt/v4 v4.4.2 // indirect
	github.com/golang/protobuf v1.5.2 // indirect
	github.com/jhump/protoreflect v1.8.2 // indirect
	github.com/jinzhu/inflection v1.0.0 // indirect
	github.com/jinzhu/now v1.1.4 // indirect
	github.com/json-iterator/go v1.1.12 // indirect
	github.com/modern-go/concurrent v0.0.0-20180228061459-e0a39a4cb421 // indirect
	github.com/modern-go/reflect2 v1.0.2 // indirect
	github.com/oleiade/lane v1.0.1 // indirect
	github.com/tidwall/gjson v1.9.3 // indirect
	github.com/tidwall/match v1.1.1 // indirect
	github.com/tidwall/pretty v1.2.0 // indirect
	golang.org/x/arch v0.0.0-20220722155209-00200b7164a7 // indirect
	golang.org/x/net v0.0.0-20210614182718-04defd469f4e // indirect
	golang.org/x/sync v0.0.0-20210220032951-036812b2e83c // indirect
	golang.org/x/sys v0.0.0-20220817070843-5a390386f1f2 // indirect
	golang.org/x/text v0.3.6 // indirect
	google.golang.org/genproto v0.0.0-20210513213006-bf773b8c8384 // indirect
	google.golang.org/protobuf v1.28.0 // indirect
	gopkg.in/yaml.v3 v3.0.1 // indirect
)

replace github.com/apache/thrift => github.com/apache/thrift v0.13.0
